{
  "iisSettings": {
    "windowsAuthentication": false,
    "anonymousAuthentication": true,
    "iisExpress": {
      "applicationUrl": "http://localhost:55170",
      "sslPort": 44368
    }
  },
  "profiles": {
    "IIS Express": {
      "commandName": "IISExpress",
      "launchBrowser": true,
      "environmentVariables": {
        "ASPNETCORE_ENVIRONMENT": "Development"
      }
    },
    "MyHelloWorld": {
      "commandName": "Project",
      "launchBrowser": true,
      "launchUrl": "weatherforecast",
      "environmentVariables": {
        "ASPNETCORE_ENVIRONMENT": "Development"
      },
      "applicationUrl": "https://localhost:5003;http://localhost:5004"
    },
    "Docker": {
      "commandName": "Docker",
      "launchBrowser": true,
      "launchUrl": "{Scheme}://{ServiceHost}:{ServicePort}/weatherforecast",
      "environmentVariables": {
        "ASPNETCORE_URLS": "https://+:443;http://+:80",
        "ASPNETCORE_HTTPS_PORT": "44359"
      },
      "httpPort": 55173,
      "useSSL": true,
      "sslPort": 44359
    }
  }
}